{
	 "fields": [
        {
            "name": "country_id",
            "type": "integer"
        },
        {
            "name": "event_category_id",
            "type": "integer"
        },
        
		{
			"name": "place_id",
			"type": "integer"
		},
		{
			"name": "name",
			"type": "string"
		},
		{
			"name": "description",
			"type": "text"
		},
		{
			"name": "instrucction",
			"type": "text"
		},
		{
			"name": "image",
			"type": "text"
		},
		{
			"name": "image_small",
			"type": "text"
		},
		{
			"name": "map",
			"type": "text"
		},
		{
			"name": "background",
			"type": "text"
		},
		{
			"name": "published",
			"type": "datetime"
		},
		{
			"name": "active",
			"type": "boolean"
		},
		{
			"name": "archived",
			"type": "boolean"
		},
		{
			"name": "youtube",
			"type": "text"
		},
		{
			"name": "serch_twitter",
			"type": "text"
		},
		{
			"name": "fee",
			"type": "decimal"

		},
		{
			"name": "courtesey_price",
			"type": "decimal"

		},
		{
			"name": "sold_out",
			"type": "boolean"

		}

]
	}